[
    {
        "group": "guest",
        "permissions": [
            {
                "resource": "/auth/*",
                "methods": ["POST"],
                "action": "allow"
            },
            {
                "resource": "/static/*",
                "methods": ["GET"],
                "action": "allow"
            }
        ]
    },
    {
        "group": "user",
        "permissions": [
            {
                "resource": "/auth/*",
                "methods": ["POST"],
                "action": "allow"
            },
            {
                "resource": "/static/*",
                "methods": ["GET"],
                "action": "allow"
            },
            {
                "resource": "/auth/logout",
                "methods": ["POST"],
                "action": "allow"
            },
            {
                "resource": "/url/*",
                "methods": "*",
                "action": "allow"
            },
              {
                "resource": "/email/*",
                "methods": "*",
                "action": "allow"
            },
            {
                "resource": "/reload/*",
                "methods": "*",
                "action": "allow"
            },
            {
                "resource": "/schedule/*",
                "methods": "*",
                "action": "allow"
            }
        ]
    }
]